[
    {
      "type": "One Way",
      "startvalue": "bkk",
      "finalvalue": "cdg",      
      "outbound": {
        "airline": "AeroFlot",
        "direction": "OUTBOUND",
        "price": 636.0,
        "takeOffFrom": "Suvanabhumi, Terminal",
        "takeOffTime": 10.40 ,
        "landingTo": "Paris-Charles-de-Gaulle, Terminal2C",
        "landingTime": 22.30 ,
        "transists": [
          {
            "fromAirport": "Suvanabhumi, Terminal",
            "toAirport": "Sheremetyevo, Terminal F",
            "order": 1,
            "flightNO": "SU271",
            "aircraftType": "Airbus333",
            "airline": "Aeroflot",
            "seatClass": "ECONOMY",
            "remainingSeats": 4
          },
          {
            "fromAirport": "Sheremetyevo, Terminal F",
            "toAirport": "Paris-Charles-De-Gaulle, Terminal2C",
            "order": 2,
            "flightNO": "SU2460",
            "aircraftType": "Airbus320",
            "airline": "Aeroflot",
            "seatClass": "ECONOMY",
            "remainingSeats": 10
          }
        ]
      }
    },
    {
      "type": "One Way",
      "startvalue": "bkk",
      "finalvalue": "cdg", 
      "outbound": {
        "airline": "Thai Airways",
        "direction": "OUTBOUND",
        "price": 930.0,
        "takeOffFrom": "Suvanabhumi, Terminal",
        "takeOffTime": 23.40 ,
        "landingTo": "Paris-Charles-de-Gaulle, Terminal1A",
        "landingTime": 8.30 ,
        "transists": [
          {
            "fromAirport": "Suvanabhumi, Terminal",
            "toAirport": "Brisbane Airport, Terminal D",
            "order": 1,
            "flightNO": "TG930",
            "aircraftType": "Airbus320",
            "airline": "Thai Airways",
            "seatClass": "FIRST_CLASS",
            "remainingSeats": 10
          },
          {
            "fromAirport": "Brisbane Airport, Terminal D",
            "toAirport": "Paris-Charles-De-Gaulle, Terminal1A",
            "order": 2,
            "flightNO": "TG933",
            "aircraftType": "Airbus320",
            "airline": "Thai Airways",
            "seatClass": "BUSINESS",
            "remainingSeats": 10
          }
        ]
      }
    }
  ]
